# WaveFront *.mtl file (generated by CINEMA 4D)

newmtl Mat
Kd 0.8 0.4 0.6
Ks 0.07488799840212 0.20239999890327 0.08126360177994
d 0.9
Ns 100
illum 7

newmtl Mat.1
Kd 0.52799999713898 0.74106669425964 0.80000001192093
Ks 1.00000000000000 1.00000000000000 1.00000000000000
Ns 100
d 0.5
Tf 0.31000000238419 0.74699997901916 1.00000000000000
illum 7

